%YAML 1.1
%TAG !u! tag:unity3d.com,2011:
--- !u!114 &11400000
MonoBehaviour:
  m_ObjectHideFlags: 0
  m_CorrespondingSourceObject: {fileID: 0}
  m_PrefabInstance: {fileID: 0}
  m_PrefabAsset: {fileID: 0}
  m_GameObject: {fileID: 0}
  m_Enabled: 1
  m_EditorHideFlags: 0
  m_Script: {fileID: 11500000, guid: 1f18fec9b55c4f818e284af454161962, type: 3}
  m_Name: New MixedRealitySpeechCommandsProfile
  m_EditorClassIdentifier: 
  isCustomProfile: 1
  startBehavior: 0
  recognitionConfidenceLevel: 1
  speechCommands:
  - localizationKey: 
    keyword: Menu
    keyCode: 51
    action:
      id: 2
      description: Menu
      axisConstraint: 2
  - localizationKey: 
    keyword: Select
    keyCode: 49
    action:
      id: 1
      description: Select
      axisConstraint: 2
  - localizationKey: 
    keyword: Toggle Diagnostics
    keyCode: 48
    action:
      id: 14
      description: Toggle Diagnostics
      axisConstraint: 0
  - localizationKey: 
    keyword: Toggle Profiler
    keyCode: 57
    action:
      id: 15
      description: Toggle Profiler
      axisConstraint: 0
  - localizationKey: 
    keyword: Show Muscle
    keyCode: 109
    action:
      id: 0
      description: Toggle Profiler
      axisConstraint: 0
  - localizationKey: 
    keyword: Show Skeleton
    keyCode: 120
    action:
      id: 0
      description: Toggle Profiler
      axisConstraint: 0
  - localizationKey: 
    keyword: Show Skin
    keyCode: 115
    action:
      id: 0
      description: Toggle Profiler
      axisConstraint: 0
  - localizationKey: 
    keyword: Hide Muscle
    keyCode: 101
    action:
      id: 0
      description: Toggle Profiler
      axisConstraint: 0
  - localizationKey: 
    keyword: Hide Skeleton
    keyCode: 119
    action:
      id: 0
      description: Toggle Profiler
      axisConstraint: 0
  - localizationKey: 
    keyword: Hide Skin
    keyCode: 113
    action:
      id: 0
      description: Toggle Profiler
      axisConstraint: 0
  - localizationKey: 
    keyword: Show Arteries
    keyCode: 0
    action:
      id: 0
      description: Toggle Profiler
      axisConstraint: 0
  - localizationKey: 
    keyword: Hide Arteries
    keyCode: 0
    action:
      id: 0
      description: Toggle Profiler
      axisConstraint: 0
  - localizationKey: 
    keyword: Show Veins
    keyCode: 0
    action:
      id: 0
      description: Toggle Profiler
      axisConstraint: 0
  - localizationKey: 
    keyword: Hide Veins
    keyCode: 0
    action:
      id: 0
      description: Toggle Profiler
      axisConstraint: 0
  - localizationKey: 
    keyword: Show Organs
    keyCode: 0
    action:
      id: 0
      description: Toggle Profiler
      axisConstraint: 0
  - localizationKey: 
    keyword: Hide Organs
    keyCode: 0
    action:
      id: 0
      description: Toggle Profiler
      axisConstraint: 0
  - localizationKey: 
    keyword: Show Cube
    keyCode: 99
    action:
      id: 0
      description: Toggle Profiler
      axisConstraint: 0
  - localizationKey: 
    keyword: Hide Cube
    keyCode: 100
    action:
      id: 0
      description: Toggle Profiler
      axisConstraint: 0
  - localizationKey: 
    keyword: Show Laser
    keyCode: 0
    action:
      id: 0
      description: Toggle Profiler
      axisConstraint: 0
  - localizationKey: 
    keyword: Hide Laser
    keyCode: 0
    action:
      id: 0
      description: Toggle Profiler
      axisConstraint: 0
